DISC, ID, KUERZEL, BEZEICHNUNG, GRUPPENLEISTUNG, TEILNAHMEPFLICHT, MAXPUNKTE, FORMEL, PARENT, MODUL

LMT,1,DBTECH,DBTECH (5),,,,UE + KL,,612181
LMT,2,UE,Übung,,,,UEB2 + UEB3 + UEB4 + UEB5 + PRAE,1,
L,4,UEB2,2. Übungsblatt,true,false,10.0,,2,
L,5,UEB3,3. Übungsblatt,true,false,10.0,,2,
L,6,UEB4,4. Übungsblatt,true,false,10.0,,2,
L,7,UEB5,5. Übungsblatt,true,false,10.0,,2,
LMT,1130,DMDB,DMDB (6/6/6/6/6),,,,"Math.max(UE,UEUE) + KL",,612141
LMT,1131,UE,Übung,,,,UEB2 + UEB3 + UEB4 + UEB5 + UEB6 + PRAE,1130,
LMT,1132,KL,Klausur,,,,"Math.max(KLA,KLB)",1130,
L,1133,UEB2,2. Übungsblatt,true,false,6.0,,1131,
L,1134,UEB3,3. Übungsblatt,true,false,6.0,,1131,
L,1135,UEB4,4. Übungsblatt,true,false,6.0,,1131,
L,1136,UEB5,5. Übungsblatt,true,false,6.0,,1131,
L,1137,UEB6,6. Übungsblatt,true,false,6.0,,1131,
LMT,1270,REALDBAS,REALDBAS,,,,UEB1 + UEB2 + RUE,,612281
L,1271,UEB1,1. Übungsblatt,true,false,20.0,,1270,
L,1272,UEB2,2. Übungsblatt,true,false,60.0,,1270,
L,2000,PRAE,Präsentation,false,false,0.0,,2,
L,2001,PRAE,Präsentation,false,false,0.0,,1131,
L,2240,KLA,Klausur A,false,true,70.0,,1132,
L,2241,KLB,Klausur B,false,true,70.0,,1132,
LMT,2450,KL,Klausur,,,,"Math.max(KLA,KLB)",1,
L,2451,KLA,Klausur A,false,true,60.0,,2450,
L,2452,KLB,Klausur B,false,true,60.0,,2450,
L,2620,UEUE,Übung (Übernahme),false,false,30.0,,1130,
L,2730,RUE,Rücksprache,false,true,20.0,,1270,
LMT,2930,DBTECH,DBTECH (4-15/10/15),,,,UE + KL,,612181
LMT,2931,UE,Übung,,,,UEB2 + UEB3 + UEB4 +  PRAE,2930,
LMT,2932,KL,Klausur,,,,"Math.max(KLA,KLB)",2930,
L,2933,UEB2,2. Übungsblatt,true,false,15.0,,2931,
L,2934,UEB3,3. Übungsblatt,true,false,10.0,,2931,
L,2935,UEB4,4. Übungsblatt,true,false,15.0,,2931,
L,2936,PRAE,Präsentation,false,false,0.0,,2931,
L,2937,KLA,Klausur A,false,true,60.0,,2932,
L,2938,KLB,Klausur B,false,true,60.0,,2932,
                                                                  
LMT,14741,UE,Übung,,,,UEB2 + UEB3 + UEB4,14740,
LMT,14743,KL,Klausur,,,,"Math.max(KLA,KLB)",14740,
L,14745,UEB2,2. Übungsblatt,true,false,10.0,,14741,
L,14746,UEB3,3. Übungsblatt,true,false,15.0,,14741,
L,14747,UEB4,4. Übungsblatt,true,false,15.0,,14741,
LMT,14750,DBTECH,DBTECH (4-15/12/13),,,,"Math.max(UE,UEUE) + KL",,612181
LMT,14751,UE,Übung,,,,UEB2 + UEB3 + UEB4 +  PRAE,14750,
LMT,14753,KL,Klausur,,,,"Math.max(KLA,KLB)",14750,
L,14755,UEB2,2. Übungsblatt,true,false,15.0,,14751,
L,14756,UEB3,3. Übungsblatt,true,false,12.0,,14751,
L,14757,UEB4,4. Übungsblatt,true,false,13.0,,14751,
L,14758,PRAE,Präsentation,false,false,0.0,,14751,
L,14760,KLA,Klausur A,false,true,60.0,,14743,
L,14765,KLB,Klausur B,false,true,60.0,,14743,
L,14770,UEUE,Übung (Übernahme),false,false,40.0,,14740,
L,14775,KLA,Klausur A,false,true,60.0,,14753,
L,14780,KLB,Klausur B,false,true,60.0,,14753,
L,14785,UEUE,Übung (Übernahme),false,false,40.0,,14750,
                                                                        
                                                    
L,14792,UEB2,2. Übungsblatt,true,false,60.0,,14790,
L,14793,RUE,Rücksprache,false,true,20.0,,14790,
                                                                   
                                                       
                                                  
                                                    
                                                   
                                                   
                                                    
LMT,14805,DMDB,DMDB (6/5/7/6/6),,,,"Math.max(UE,UEUE) + KL",,612141
LMT,14806,UE,Übung,,,,UEB2 + UEB3 + UEB4 + UEB5 + UEB6 + PRAE,14805,
LMT,14808,KL,Klausur,,,,"Math.max(KLA,KLB)",14805,
L,14810,UEB2,2. Übungsblatt,true,false,6.0,,14806,
L,14811,UEB3,3. Übungsblatt,true,false,5.0,,14806,
L,14812,UEB4,4. Übungsblatt,true,false,7.0,,14806,
L,14813,UEB5,5. Übungsblatt,true,false,6.0,,14806,
L,14814,UEB6,6. Übungsblatt,true,false,6.0,,14806,
L,14815,PRAE,Präsentation,false,false,0.0,,14806,
                                             
                                             
L,14825,KLA,Klausur A,false,true,70.0,,14808,
L,14826,KLB,Klausur B,false,true,70.0,,14808,
L,14827,UEUE,Übung (Übernahme),false,false,30.0,,14805,
L,14830,UEB,Übernahme,false,true,100.0,,14790,
                                                         
LMT,14840,DBTECH,DBTECH (4-10/15/15),,,,"Math.max(UE,UEUE) + KL",,612181
LMT,14841,UE,Übung,,,,UEB2 + UEB3 + UEB4 +  PRAE,14840,
LMT,14843,KL,Klausur,,,,"Math.max(KLA,KLB)",14840,
L,14845,KLA,Klausur A,false,true,60.0,,14843,
L,14846,KLB,Klausur B,false,true,60.0,,14843,
L,14847,UEUE,Übung (Übernahme),false,false,40.0,,14840,
L,14848,UEB2,2. Übungsblatt,true,false,10.0,,14841,
L,14849,UEB3,3. Übungsblatt,true,false,15.0,,14841,
L,14850,UEB4,4. Übungsblatt,true,false,15.0,,14841,
L,14851,PRAE,Präsentation,false,false,0.0,,14841,
LMT,14855,DMDB,DMDB (12/13/15),,,,"Math.max(UE,UEUE) + KL",,612141
LMT,14856,UE,Übung,,,,UEB1 + UEB2 + UEB3,14855,
LMT,14858,KL,Klausur,,,,"Math.max(KLA,KLB)",14855,
L,14860,UEUE,Übung (Übernahme),false,false,40.0,,14855,
L,14861,UEB1,1. Übungsblatt,true,false,12.0,,14856,
L,14862,UEB2,2. Übungsblatt,true,false,13.0,,14856,
L,14863,UEB3,3. Übungsblatt,true,false,15.0,,14856,
L,14864,KLA,Klausur A,false,true,60.0,,14858,
L,14865,KLB,Klausur B,false,true,60.0,,14858,
                                                              
LMT,14875,UEB,Übung,,,,UEB1 + UEB2 + UEB3,14870,
L,14877,DOK,Dokumentation,true,false,20.0,,14870,
L,14878,PRAE,Präsentation,true,true,20.0,,14870,
L,14879,UEUE,Übernahme,false,false,100.0,,14870,
L,14880,UEB1,1. Übungsblatt,true,false,20.0,,14875,
L,14881,UEB2,2. Übungsblatt,true,false,20.0,,14875,
L,14882,UEB3,3. Übungsblatt,true,false,20.0,,14875,
                                                                 
                                             
                                                
                                                
                                                
                                               
                                          
                                          
LMT,14895,KBE,KBE,,,,"Math.max(UEB + DOK + PRAE,UEUE)",,612014
LMT,14896,UEB,Uebung,,,,UEB1 + UEB2 + UEB3 + UEB4,14895,
L,14898,DOK,Dokumentation,true,false,20.0,,14895,
L,14899,PRAE,Präsentation,true,true,20.0,,14895,
L,14900,UEUE,Übernahme,false,false,100.0,,14895,
L,14901,UEB1,1. Übungsblatt,true,false,15.0,,14896,
L,14902,UEB2,2. Übungsblatt,true,false,15.0,,14896,
L,14903,UEB3,3. Übungsblatt,true,false,15.0,,14896,
L,14904,UEB4,4. Übungsblatt,true,false,15.0,,14896,
LMT,14905,KBE,KBE (15-15-18-17-20-15),,,,"Math.max(UEB + DOK + PRAE,UEUE)",,612014
LMT,14906,UEB,Uebung,,,,UEB1 + UEB2 + UEB3 + UEB4,14905,
L,14908,DOK,Dokumentation,true,false,20.0,,14905,
L,14909,PRAE,Praesentation,true,false,15.0,,14905,
L,14910,UEUE,Übernahme,false,false,100.0,,14905,
L,14911,UEB1,1. Übungsblatt,true,false,15.0,,14906,
L,14912,UEB2,2. Übungsblatt,true,false,15.0,,14906,
L,14913,UEB3,3. Übungsblatt,true,false,18.0,,14906,
L,14914,UEB4,4. Übungsblatt,true,false,17.0,,14906,
LMT,14915,KBA,KBA (20/22/23/15/20),,,,"Math.max(UEB + DOK + PRAE,UEUE)",,613014
LMT,14916,UEB,Übung,,,,UEB1 + UEB2 + UEB3,14915,
L,14918,DOK,Dokumentation,true,false,20.0,,14915,
L,14919,PRAE,Präsentation,true,true,15.0,,14915,
L,14920,UEUE,Übernahme,false,false,100.0,,14915,
L,14921,UEB1,1. Übungsblatt,true,false,20.0,,14916,
L,14922,UEB2,2. Übungsblatt,true,false,22.0,,14916,
L,14923,UEB3,3. Übungsblatt,true,false,23.0,,14916,
                                                   
                                                 
                                                        
                                                         
                                                   
                                              
                                                 
                                                                                                           
                                                                                                           
                                                        
                                                                                                           
L,14990,,Neuer Leistungsnachweis,false,false,0.0,,14790,
L,14991,,Neuer Leistungsnachweis,false,false,0.0,,14790,
L,14992,,Neuer Leistungsnachweis,false,false,0.0,,14790,
                                                                                                           
                                                        
                                                        
                                                        
                                                        
                                                        
L,15020,,Neuer Leistungsnachweis,false,false,0.0,,14870,
                                                        
                                                        
                                                        
                                                                                                          
LMT,15037,Neuer Leistungsnachweis mit Teilleistungen,Neuer Leistungsnachweis mit Teilleistungen,,,,,14740,
                                                        
                                                        
                                                                                                          
                                                                                                          
L,15048,"",Neuer Leistungsnachweisb,false,false,0.0,,,
L,14791,UEB1 ,1. Übungsblatt,true,false,20.0,,14790,
                                                                  
                                                                                                           
                                                        
                                                        
LMT,14870,KBA ,KBA,,,,"Math.max(UEB + DOK + PRAE,UEUE)",,613014
LMT,14740,DATA  ,DATA (10/15/15),,,,"Math.max(UE,UEUE) + KL",,613431
                                                        
                                                        
                                                        
                                                        
                                                        
                                                        
                                                        
                                                        
                                                        
                                                        
                                                        
L,15120,,Neuer Leistungsnachweis,false,false,0.0,,14995,
                                                        
                                                                                                              
LMT,14988,Neuer Leistungsnachweis mit Teilleistungen,Neuer Leistungsnachweis mit Teilleistungen ,,,,"",,612008
LMT,14790,REALDBAS ,REALDBAS,,,,"Math.max(UEB1 + UEB2 + RUE,UEB)",,612008
LMT,14995,Neuer Leistungsnachweis mit Teilleistungen ,Neuer Leistungsnachweis mit Teilleistungen,,,,"",,611611
