INDEX VERSION 1.131+/Users/paulkulschewski/eclipse-workspace/.metadata/.plugins/org.eclipse.jdt.core
2186139969.index
3728047908.index
4108130441.index
4186036694.index
2720140819.index
1345518030.index
1624768958.index
97863960.index
363152344.index
2997889554.index
2970483195.index
665591753.index
3283417692.index
2091482233.index
2108170290.index
3657721178.index
3723520512.index
429621997.index
2254170629.index
2283469334.index
941210201.index
2015938230.index
338626639.index
2619472829.index
2044437481.index
1271342938.index
1678522349.index
685236079.index
1241710292.index
2406738730.index
1654975474.index
3093866130.index
4107579207.index
4190343708.index
783147126.index
2397828166.index
850882701.index
1467127884.index
2145368887.index
607292784.index
1144384042.index
1742897964.index
1672979237.index
950241290.index
3290975610.index
4241450930.index
2670414054.index
1809548371.index
2183849097.index
685204386.index
199503035.index
1694998799.index
2225827089.index
4101167580.index
1792249840.index
2624976582.index
1767186350.index
4257064370.index
1381618491.index
3093428458.index
1910262352.index
2792649131.index
1124887105.index
1005620458.index
288112982.index
3459828603.index
3587222784.index
3291709966.index
1929054972.index
1144050856.index
971232309.index
480834907.index
242741737.index
3689352742.index
286706118.index
56398559.index
2075751331.index
3989036701.index
2723170652.index
3144476467.index
1834142976.index
3205567181.index
1653335996.index
3620068376.index
3766893981.index
2088300686.index
4253745953.index
4292249435.index
3671188877.index
3830464875.index
4061796439.index
2499292115.index
11171121.index
2252005383.index
