<?xml version="1.0" encoding="UTF-8"?>
<session version="1.0">
<refactoring accessors="true" comment="Delete element from project &apos;de.htw.armt.lib&apos;&#x0A;- Original project: &apos;de.htw.armt.lib&apos;&#x0A;- Original element: &apos;de.htw.armt.rating&apos;" description="Delete element" element1="de.htw.armt.rating" elements="0" flags="589830" id="org.eclipse.jdt.ui.delete" resources="1" stamp="1544554948441" subPackages="false" version="1.0"/>
</session>