what,kind,bundleId,bundleVersion,description,time
activated,editor,org.eclipse.jdt.ui,3.7.2.v20120109-1427,"org.eclipse.jdt.ui.CompilationUnitEditor",1544623288156
activated,editor,org.eclipse.jdt.ui,3.7.2.v20120109-1427,"org.eclipse.jdt.ui.CompilationUnitEditor",1544623302239
activated,editor,org.eclipse.jdt.ui,3.7.2.v20120109-1427,"org.eclipse.jdt.ui.CompilationUnitEditor",1544623312906
activated,editor,org.eclipse.jdt.ui,3.7.2.v20120109-1427,"org.eclipse.jdt.ui.CompilationUnitEditor",1544623314627
activated,editor,org.eclipse.jdt.ui,3.7.2.v20120109-1427,"org.eclipse.jdt.ui.CompilationUnitEditor",1544623316947
opened,editor,org.eclipse.jdt.ui,3.7.2.v20120109-1427,"org.eclipse.jdt.ui.CompilationUnitEditor",1544623324733
activated,editor,org.eclipse.jdt.ui,3.7.2.v20120109-1427,"org.eclipse.jdt.ui.CompilationUnitEditor",1544623324779
executed,command,org.eclipse.jdt.ui,3.7.2.v20120109-1427,"org.eclipse.jdt.ui.edit.text.java.open.editor",1544623324784
activated,editor,org.eclipse.jdt.ui,3.7.2.v20120109-1427,"org.eclipse.jdt.ui.CompilationUnitEditor",1544623334730
closed,editor,org.eclipse.jdt.ui,3.7.2.v20120109-1427,"org.eclipse.jdt.ui.CompilationUnitEditor",1544623334730
deactivated,workbench,org.eclipse.ui.workbench,3.7.1.v20120104-1859,"",1544623341261
activated,workbench,org.eclipse.ui.workbench,3.7.1.v20120104-1859,"",1544623370022
opened,editor,org.eclipse.jdt.ui,3.7.2.v20120109-1427,"org.eclipse.jdt.ui.CompilationUnitEditor",1544623373836
activated,editor,org.eclipse.jdt.ui,3.7.2.v20120109-1427,"org.eclipse.jdt.ui.CompilationUnitEditor",1544623373880
executed,command,org.eclipse.jdt.ui,3.7.2.v20120109-1427,"org.eclipse.jdt.ui.edit.text.java.open.editor",1544623373883
activated,view,org.eclipse.jdt.ui,3.7.2.v20120109-1427,"org.eclipse.jdt.ui.PackageExplorer",1544623382192
error,log,,,"Unhandled event loop exception",1544623385574
deactivated,workbench,org.eclipse.ui.workbench,3.7.1.v20120104-1859,"",1544623388049
activated,workbench,org.eclipse.ui.workbench,3.7.1.v20120104-1859,"",1544624097389
activated,editor,org.eclipse.jdt.ui,3.7.2.v20120109-1427,"org.eclipse.jdt.ui.CompilationUnitEditor",1544624100989
activated,editor,org.eclipse.jdt.ui,3.7.2.v20120109-1427,"org.eclipse.jdt.ui.CompilationUnitEditor",1544624101629
activated,editor,org.eclipse.jdt.ui,3.7.2.v20120109-1427,"org.eclipse.jdt.ui.CompilationUnitEditor",1544624102185
deactivated,workbench,org.eclipse.ui.workbench,3.7.1.v20120104-1859,"",1544624123833
activated,workbench,org.eclipse.ui.workbench,3.7.1.v20120104-1859,"",1544624148346
executed,command,org.eclipse.ui,3.7.0.v20110928-1505,"org.eclipse.ui.edit.copy",1544624172071
deactivated,workbench,org.eclipse.ui.workbench,3.7.1.v20120104-1859,"",1544624173336
activated,workbench,org.eclipse.ui.workbench,3.7.1.v20120104-1859,"",1544624234267
activated,view,org.eclipse.jdt.ui,3.7.2.v20120109-1427,"org.eclipse.jdt.ui.PackageExplorer",1544624236716
error,log,,,"Unhandled event loop exception",1544624241373
deactivated,workbench,org.eclipse.ui.workbench,3.7.1.v20120104-1859,"",1544624248552
activated,workbench,org.eclipse.ui.workbench,3.7.1.v20120104-1859,"",1544624892238
activated,editor,org.eclipse.jdt.ui,3.7.2.v20120109-1427,"org.eclipse.jdt.ui.CompilationUnitEditor",1544624899443
opened,editor,org.eclipse.jdt.ui,3.7.2.v20120109-1427,"org.eclipse.jdt.ui.ClassFileEditor",1544624903474
activated,editor,org.eclipse.jdt.ui,3.7.2.v20120109-1427,"org.eclipse.jdt.ui.ClassFileEditor",1544624903574
executed,command,org.eclipse.jdt.ui,3.7.2.v20120109-1427,"org.eclipse.jdt.ui.edit.text.java.open.editor",1544624903601
activated,editor,org.eclipse.jdt.ui,3.7.2.v20120109-1427,"org.eclipse.jdt.ui.CompilationUnitEditor",1544624910694
closed,editor,org.eclipse.jdt.ui,3.7.2.v20120109-1427,"org.eclipse.jdt.ui.ClassFileEditor",1544624910694
opened,editor,org.eclipse.jdt.ui,3.7.2.v20120109-1427,"org.eclipse.jdt.ui.ClassFileEditor",1544624982319
activated,editor,org.eclipse.jdt.ui,3.7.2.v20120109-1427,"org.eclipse.jdt.ui.ClassFileEditor",1544624982372
executed,command,org.eclipse.jdt.ui,3.7.2.v20120109-1427,"org.eclipse.jdt.ui.edit.text.java.open.editor",1544624982378
activated,editor,org.eclipse.jdt.ui,3.7.2.v20120109-1427,"org.eclipse.jdt.ui.CompilationUnitEditor",1544624990311
closed,editor,org.eclipse.jdt.ui,3.7.2.v20120109-1427,"org.eclipse.jdt.ui.ClassFileEditor",1544624990311
activated,editor,org.eclipse.jdt.ui,3.7.2.v20120109-1427,"org.eclipse.jdt.ui.CompilationUnitEditor",1544624996097
executed,command,org.eclipse.jdt.ui,3.7.2.v20120109-1427,"org.eclipse.jdt.ui.edit.text.java.open.editor",1544624996125
deactivated,workbench,org.eclipse.ui.workbench,3.7.1.v20120104-1859,"",1544625096944
activated,workbench,org.eclipse.ui.workbench,3.7.1.v20120104-1859,"",1544625129570
executed,command,org.eclipse.ui,3.7.0.v20110928-1505,"org.eclipse.ui.edit.copy",1544625130380
deactivated,workbench,org.eclipse.ui.workbench,3.7.1.v20120104-1859,"",1544625134744
activated,workbench,org.eclipse.ui.workbench,3.7.1.v20120104-1859,"",1544625189134
executed,command,org.eclipse.ui,3.7.0.v20110928-1505,"org.eclipse.ui.edit.copy",1544625192170
deactivated,workbench,org.eclipse.ui.workbench,3.7.1.v20120104-1859,"",1544625192948
activated,workbench,org.eclipse.ui.workbench,3.7.1.v20120104-1859,"",1544625338249
activated,editor,org.eclipse.jdt.ui,3.7.2.v20120109-1427,"org.eclipse.jdt.ui.CompilationUnitEditor",1544625339631
deactivated,workbench,org.eclipse.ui.workbench,3.7.1.v20120104-1859,"",1544625343478
activated,workbench,org.eclipse.ui.workbench,3.7.1.v20120104-1859,"",1544625818982
deactivated,workbench,org.eclipse.ui.workbench,3.7.1.v20120104-1859,"",1544625820315
activated,workbench,org.eclipse.ui.workbench,3.7.1.v20120104-1859,"",1544625820934
executed,command,org.eclipse.ui,3.7.0.v20110928-1505,"org.eclipse.ui.edit.copy",1544625824986
deactivated,workbench,org.eclipse.ui.workbench,3.7.1.v20120104-1859,"",1544625825382
activated,workbench,org.eclipse.ui.workbench,3.7.1.v20120104-1859,"",1544625854100
executed,command,org.eclipse.ui,3.7.0.v20110928-1505,"org.eclipse.ui.edit.copy",1544625856424
deactivated,workbench,org.eclipse.ui.workbench,3.7.1.v20120104-1859,"",1544625856895
activated,workbench,org.eclipse.ui.workbench,3.7.1.v20120104-1859,"",1544625867616
executed,command,org.eclipse.ui,3.7.0.v20110928-1505,"org.eclipse.ui.edit.copy",1544625871611
deactivated,workbench,org.eclipse.ui.workbench,3.7.1.v20120104-1859,"",1544625872066
activated,workbench,org.eclipse.ui.workbench,3.7.1.v20120104-1859,"",1544625880323
executed,command,org.eclipse.ui,3.7.0.v20110928-1505,"org.eclipse.ui.edit.copy",1544625901780
deactivated,workbench,org.eclipse.ui.workbench,3.7.1.v20120104-1859,"",1544625903229
activated,workbench,org.eclipse.ui.workbench,3.7.1.v20120104-1859,"",1544625922467
executed,command,org.eclipse.ui,3.7.0.v20110928-1505,"org.eclipse.ui.edit.copy",1544625925200
deactivated,workbench,org.eclipse.ui.workbench,3.7.1.v20120104-1859,"",1544625925756
activated,workbench,org.eclipse.ui.workbench,3.7.1.v20120104-1859,"",1544626013097
executed,command,org.eclipse.ui,3.7.0.v20110928-1505,"org.eclipse.ui.edit.copy",1544626016683
deactivated,workbench,org.eclipse.ui.workbench,3.7.1.v20120104-1859,"",1544626017184
activated,workbench,org.eclipse.ui.workbench,3.7.1.v20120104-1859,"",1544626026791
executed,command,org.eclipse.ui,3.7.0.v20110928-1505,"org.eclipse.ui.edit.copy",1544626030919
executed,command,org.eclipse.ui,3.7.0.v20110928-1505,"org.eclipse.ui.edit.copy",1544626034978
deactivated,workbench,org.eclipse.ui.workbench,3.7.1.v20120104-1859,"",1544626035376
activated,workbench,org.eclipse.ui.workbench,3.7.1.v20120104-1859,"",1544626041360
executed,command,org.eclipse.ui,3.7.0.v20110928-1505,"org.eclipse.ui.edit.copy",1544626042699
deactivated,workbench,org.eclipse.ui.workbench,3.7.1.v20120104-1859,"",1544626043431
activated,workbench,org.eclipse.ui.workbench,3.7.1.v20120104-1859,"",1544626144884
deactivated,workbench,org.eclipse.ui.workbench,3.7.1.v20120104-1859,"",1544626147708
activated,workbench,org.eclipse.ui.workbench,3.7.1.v20120104-1859,"",1544626819238
executed,command,org.eclipse.ui,3.7.0.v20110928-1505,"org.eclipse.ui.edit.selectAll",1544626821239
executed,command,org.eclipse.ui,3.7.0.v20110928-1505,"org.eclipse.ui.edit.copy",1544626821950
deactivated,workbench,org.eclipse.ui.workbench,3.7.1.v20120104-1859,"",1544626822533
activated,workbench,org.eclipse.ui.workbench,3.7.1.v20120104-1859,"",1544628933352
executed,command,org.eclipse.ui,3.7.0.v20110928-1505,"org.eclipse.ui.edit.copy",1544628948509
deactivated,workbench,org.eclipse.ui.workbench,3.7.1.v20120104-1859,"",1544628949632
activated,workbench,org.eclipse.ui.workbench,3.7.1.v20120104-1859,"",1544628992920
executed,command,org.eclipse.ui,3.7.0.v20110928-1505,"org.eclipse.ui.edit.copy",1544628995500
deactivated,workbench,org.eclipse.ui.workbench,3.7.1.v20120104-1859,"",1544628996498
activated,workbench,org.eclipse.ui.workbench,3.7.1.v20120104-1859,"",1544629003001
deactivated,workbench,org.eclipse.ui.workbench,3.7.1.v20120104-1859,"",1544629009096
activated,workbench,org.eclipse.ui.workbench,3.7.1.v20120104-1859,"",1544629066441
executed,command,org.eclipse.ui,3.7.0.v20110928-1505,"org.eclipse.ui.edit.copy",1544629071980
deactivated,workbench,org.eclipse.ui.workbench,3.7.1.v20120104-1859,"",1544629073573
activated,workbench,org.eclipse.ui.workbench,3.7.1.v20120104-1859,"",1544629076374
executed,command,org.eclipse.ui,3.7.0.v20110928-1505,"org.eclipse.ui.edit.copy",1544629079158
deactivated,workbench,org.eclipse.ui.workbench,3.7.1.v20120104-1859,"",1544629080125
activated,workbench,org.eclipse.ui.workbench,3.7.1.v20120104-1859,"",1544629123770
executed,command,org.eclipse.ui,3.7.0.v20110928-1505,"org.eclipse.ui.edit.copy",1544629134168
deactivated,workbench,org.eclipse.ui.workbench,3.7.1.v20120104-1859,"",1544629135235
activated,workbench,org.eclipse.ui.workbench,3.7.1.v20120104-1859,"",1544629655115
deactivated,workbench,org.eclipse.ui.workbench,3.7.1.v20120104-1859,"",1544629658573
activated,workbench,org.eclipse.ui.workbench,3.7.1.v20120104-1859,"",1544630062633
deactivated,workbench,org.eclipse.ui.workbench,3.7.1.v20120104-1859,"",1544630085420
activated,workbench,org.eclipse.ui.workbench,3.7.1.v20120104-1859,"",1544630503843
opened,editor,org.eclipse.jdt.ui,3.7.2.v20120109-1427,"org.eclipse.jdt.ui.ClassFileEditor",1544630511530
activated,editor,org.eclipse.jdt.ui,3.7.2.v20120109-1427,"org.eclipse.jdt.ui.ClassFileEditor",1544630511587
executed,command,org.eclipse.jdt.ui,3.7.2.v20120109-1427,"org.eclipse.jdt.ui.edit.text.java.open.editor",1544630511592
activated,editor,org.eclipse.jdt.ui,3.7.2.v20120109-1427,"org.eclipse.jdt.ui.CompilationUnitEditor",1544630558939
closed,editor,org.eclipse.jdt.ui,3.7.2.v20120109-1427,"org.eclipse.jdt.ui.ClassFileEditor",1544630558939
deactivated,workbench,org.eclipse.ui.workbench,3.7.1.v20120104-1859,"",1544630563601
activated,workbench,org.eclipse.ui.workbench,3.7.1.v20120104-1859,"",1544630569326
activated,editor,org.eclipse.jdt.ui,3.7.2.v20120109-1427,"org.eclipse.jdt.ui.CompilationUnitEditor",1544630629517
executed,command,org.eclipse.jdt.ui,3.7.2.v20120109-1427,"org.eclipse.jdt.ui.edit.text.java.open.editor",1544630629539
deactivated,workbench,org.eclipse.ui.workbench,3.7.1.v20120104-1859,"",1544630635545
activated,workbench,org.eclipse.ui.workbench,3.7.1.v20120104-1859,"",1544630659612
activated,editor,org.eclipse.jdt.ui,3.7.2.v20120109-1427,"org.eclipse.jdt.ui.CompilationUnitEditor",1544630660690
deactivated,workbench,org.eclipse.ui.workbench,3.7.1.v20120104-1859,"",1544630670961
activated,workbench,org.eclipse.ui.workbench,3.7.1.v20120104-1859,"",1544630684396
opened,editor,org.eclipse.jdt.ui,3.7.2.v20120109-1427,"org.eclipse.jdt.ui.ClassFileEditor",1544630687944
activated,editor,org.eclipse.jdt.ui,3.7.2.v20120109-1427,"org.eclipse.jdt.ui.ClassFileEditor",1544630688003
executed,command,org.eclipse.jdt.ui,3.7.2.v20120109-1427,"org.eclipse.jdt.ui.edit.text.java.open.editor",1544630688032
activated,editor,org.eclipse.jdt.ui,3.7.2.v20120109-1427,"org.eclipse.jdt.ui.CompilationUnitEditor",1544630699831
closed,editor,org.eclipse.jdt.ui,3.7.2.v20120109-1427,"org.eclipse.jdt.ui.ClassFileEditor",1544630699831
deactivated,workbench,org.eclipse.ui.workbench,3.7.1.v20120104-1859,"",1544630739803
activated,workbench,org.eclipse.ui.workbench,3.7.1.v20120104-1859,"",1544631136105
executed,command,org.eclipse.ui,3.7.0.v20110928-1505,"org.eclipse.ui.edit.copy",1544631152791
deactivated,workbench,org.eclipse.ui.workbench,3.7.1.v20120104-1859,"",1544631153710
activated,workbench,org.eclipse.ui.workbench,3.7.1.v20120104-1859,"",1544631543971
activated,editor,org.eclipse.jdt.ui,3.7.2.v20120109-1427,"org.eclipse.jdt.ui.CompilationUnitEditor",1544631548877
executed,command,org.eclipse.ui,3.7.0.v20110928-1505,"org.eclipse.ui.edit.copy",1544631554302
deactivated,workbench,org.eclipse.ui.workbench,3.7.1.v20120104-1859,"",1544631555876
activated,workbench,org.eclipse.ui.workbench,3.7.1.v20120104-1859,"",1544631610281
activated,editor,org.eclipse.jdt.ui,3.7.2.v20120109-1427,"org.eclipse.jdt.ui.CompilationUnitEditor",1544631611464
executed,command,org.eclipse.ui,3.7.0.v20110928-1505,"org.eclipse.ui.edit.copy",1544631616305
deactivated,workbench,org.eclipse.ui.workbench,3.7.1.v20120104-1859,"",1544631616962
activated,workbench,org.eclipse.ui.workbench,3.7.1.v20120104-1859,"",1544631634561
activated,editor,org.eclipse.jdt.ui,3.7.2.v20120109-1427,"org.eclipse.jdt.ui.CompilationUnitEditor",1544631635482
activated,editor,org.eclipse.jdt.ui,3.7.2.v20120109-1427,"org.eclipse.jdt.ui.CompilationUnitEditor",1544631636787
activated,editor,org.eclipse.jdt.ui,3.7.2.v20120109-1427,"org.eclipse.jdt.ui.CompilationUnitEditor",1544631637878
activated,editor,org.eclipse.jdt.ui,3.7.2.v20120109-1427,"org.eclipse.jdt.ui.CompilationUnitEditor",1544631638518
executed,command,org.eclipse.ui,3.7.0.v20110928-1505,"org.eclipse.ui.edit.copy",1544631649044
deactivated,workbench,org.eclipse.ui.workbench,3.7.1.v20120104-1859,"",1544631650223
activated,workbench,org.eclipse.ui.workbench,3.7.1.v20120104-1859,"",1544631784456
executed,command,org.eclipse.ui,3.7.0.v20110928-1505,"org.eclipse.ui.edit.copy",1544631796678
deactivated,workbench,org.eclipse.ui.workbench,3.7.1.v20120104-1859,"",1544631797436
activated,workbench,org.eclipse.ui.workbench,3.7.1.v20120104-1859,"",1544631806941
executed,command,org.eclipse.ui,3.7.0.v20110928-1505,"org.eclipse.ui.edit.copy",1544631809297
deactivated,workbench,org.eclipse.ui.workbench,3.7.1.v20120104-1859,"",1544631809662
activated,workbench,org.eclipse.ui.workbench,3.7.1.v20120104-1859,"",1544631899926
activated,editor,org.eclipse.jdt.ui,3.7.2.v20120109-1427,"org.eclipse.jdt.ui.CompilationUnitEditor",1544631901274
activated,editor,org.eclipse.jdt.ui,3.7.2.v20120109-1427,"org.eclipse.jdt.ui.CompilationUnitEditor",1544631916273
activated,editor,org.eclipse.jdt.ui,3.7.2.v20120109-1427,"org.eclipse.jdt.ui.CompilationUnitEditor",1544631920011
deactivated,workbench,org.eclipse.ui.workbench,3.7.1.v20120104-1859,"",1544631937322
activated,workbench,org.eclipse.ui.workbench,3.7.1.v20120104-1859,"",1544632077837
activated,editor,org.eclipse.jdt.ui,3.7.2.v20120109-1427,"org.eclipse.jdt.ui.CompilationUnitEditor",1544632078678
activated,editor,org.eclipse.jdt.ui,3.7.2.v20120109-1427,"org.eclipse.jdt.ui.CompilationUnitEditor",1544632083224
executed,command,org.eclipse.ui,3.7.0.v20110928-1505,"org.eclipse.ui.edit.copy",1544632087366
deactivated,workbench,org.eclipse.ui.workbench,3.7.1.v20120104-1859,"",1544632088940
activated,workbench,org.eclipse.ui.workbench,3.7.1.v20120104-1859,"",1544632093251
executed,command,org.eclipse.ui,3.7.0.v20110928-1505,"org.eclipse.ui.edit.copy",1544632099685
error,log,,,"Unhandled event loop exception",1544632105037
deactivated,workbench,org.eclipse.ui.workbench,3.7.1.v20120104-1859,"",1544632109539
activated,workbench,org.eclipse.ui.workbench,3.7.1.v20120104-1859,"",1544632149641
executed,command,org.eclipse.ui,3.7.0.v20110928-1505,"org.eclipse.ui.file.save",1544632152983
executed,command,org.eclipse.ui,3.7.0.v20110928-1505,"org.eclipse.ui.edit.undo",1544632156859
executed,command,org.eclipse.ui,3.7.0.v20110928-1505,"org.eclipse.ui.file.save",1544632158275
executed,command,org.eclipse.ui,3.7.0.v20110928-1505,"org.eclipse.ui.edit.copy",1544632189101
deactivated,workbench,org.eclipse.ui.workbench,3.7.1.v20120104-1859,"",1544632190169
activated,workbench,org.eclipse.ui.workbench,3.7.1.v20120104-1859,"",1544632215230
executed,command,org.eclipse.ui,3.7.0.v20110928-1505,"org.eclipse.ui.edit.copy",1544632218937
deactivated,workbench,org.eclipse.ui.workbench,3.7.1.v20120104-1859,"",1544632220273
activated,workbench,org.eclipse.ui.workbench,3.7.1.v20120104-1859,"",1544632231029
executed,command,org.eclipse.ui,3.7.0.v20110928-1505,"org.eclipse.ui.edit.copy",1544632239836
deactivated,workbench,org.eclipse.ui.workbench,3.7.1.v20120104-1859,"",1544632240543
activated,workbench,org.eclipse.ui.workbench,3.7.1.v20120104-1859,"",1544632241112
deactivated,workbench,org.eclipse.ui.workbench,3.7.1.v20120104-1859,"",1544632242341
activated,workbench,org.eclipse.ui.workbench,3.7.1.v20120104-1859,"",1544632255391
opened,editor,org.eclipse.jdt.ui,3.7.2.v20120109-1427,"org.eclipse.jdt.ui.ClassFileEditor",1544632259444
activated,editor,org.eclipse.jdt.ui,3.7.2.v20120109-1427,"org.eclipse.jdt.ui.ClassFileEditor",1544632259527
executed,command,org.eclipse.jdt.ui,3.7.2.v20120109-1427,"org.eclipse.jdt.ui.edit.text.java.open.editor",1544632259562
activated,editor,org.eclipse.jdt.ui,3.7.2.v20120109-1427,"org.eclipse.jdt.ui.CompilationUnitEditor",1544632263749
closed,editor,org.eclipse.jdt.ui,3.7.2.v20120109-1427,"org.eclipse.jdt.ui.ClassFileEditor",1544632263749
executed,command,org.eclipse.ui,3.7.0.v20110928-1505,"org.eclipse.ui.edit.copy",1544632281634
deactivated,workbench,org.eclipse.ui.workbench,3.7.1.v20120104-1859,"",1544632283613
activated,workbench,org.eclipse.ui.workbench,3.7.1.v20120104-1859,"",1544632286232
executed,command,org.eclipse.ui,3.7.0.v20110928-1505,"org.eclipse.ui.edit.copy",1544632287892
deactivated,workbench,org.eclipse.ui.workbench,3.7.1.v20120104-1859,"",1544632288438
activated,workbench,org.eclipse.ui.workbench,3.7.1.v20120104-1859,"",1544632316428
activated,editor,org.eclipse.jdt.ui,3.7.2.v20120109-1427,"org.eclipse.jdt.ui.CompilationUnitEditor",1544632330612
activated,editor,org.eclipse.jdt.ui,3.7.2.v20120109-1427,"org.eclipse.jdt.ui.CompilationUnitEditor",1544632337781
opened,editor,org.eclipse.jdt.ui,3.7.2.v20120109-1427,"org.eclipse.jdt.ui.ClassFileEditor",1544632342859
activated,editor,org.eclipse.jdt.ui,3.7.2.v20120109-1427,"org.eclipse.jdt.ui.ClassFileEditor",1544632342922
executed,command,org.eclipse.jdt.ui,3.7.2.v20120109-1427,"org.eclipse.jdt.ui.edit.text.java.open.editor",1544632342957
activated,editor,org.eclipse.jdt.ui,3.7.2.v20120109-1427,"org.eclipse.jdt.ui.CompilationUnitEditor",1544632355360
closed,editor,org.eclipse.jdt.ui,3.7.2.v20120109-1427,"org.eclipse.jdt.ui.ClassFileEditor",1544632355361
deactivated,workbench,org.eclipse.ui.workbench,3.7.1.v20120104-1859,"",1544632401085
started,bundle,org.eclipse.equinox.p2.garbagecollector,1.0.200.v20110815-1419,"org.eclipse.equinox.p2.garbagecollector",1544632452992
activated,workbench,org.eclipse.ui.workbench,3.7.1.v20120104-1859,"",1544632826268
opened,editor,org.eclipse.jdt.ui,3.7.2.v20120109-1427,"org.eclipse.jdt.ui.ClassFileEditor",1544632839447
activated,editor,org.eclipse.jdt.ui,3.7.2.v20120109-1427,"org.eclipse.jdt.ui.ClassFileEditor",1544632839508
executed,command,org.eclipse.jdt.ui,3.7.2.v20120109-1427,"org.eclipse.jdt.ui.edit.text.java.open.editor",1544632839512
activated,editor,org.eclipse.jdt.ui,3.7.2.v20120109-1427,"org.eclipse.jdt.ui.CompilationUnitEditor",1544632848168
closed,editor,org.eclipse.jdt.ui,3.7.2.v20120109-1427,"org.eclipse.jdt.ui.ClassFileEditor",1544632848168
deactivated,workbench,org.eclipse.ui.workbench,3.7.1.v20120104-1859,"",1544632849819
activated,workbench,org.eclipse.ui.workbench,3.7.1.v20120104-1859,"",1544632863530
deactivated,workbench,org.eclipse.ui.workbench,3.7.1.v20120104-1859,"",1544632865362
activated,workbench,org.eclipse.ui.workbench,3.7.1.v20120104-1859,"",1544632865864
deactivated,workbench,org.eclipse.ui.workbench,3.7.1.v20120104-1859,"",1544632867515
activated,view,org.eclipse.mylyn.tasks.ui,3.6.5.v20120215-0100,"org.eclipse.mylyn.tasks.ui.views.tasks",1544633118833
activated,workbench,org.eclipse.ui.workbench,3.7.1.v20120104-1859,"",1544633118955
activated,editor,org.eclipse.jdt.ui,3.7.2.v20120109-1427,"org.eclipse.jdt.ui.CompilationUnitEditor",1544633123694
activated,editor,org.eclipse.jdt.ui,3.7.2.v20120109-1427,"org.eclipse.jdt.ui.CompilationUnitEditor",1544633124262
activated,editor,org.eclipse.jdt.ui,3.7.2.v20120109-1427,"org.eclipse.jdt.ui.CompilationUnitEditor",1544633124769
activated,editor,org.eclipse.jdt.ui,3.7.2.v20120109-1427,"org.eclipse.jdt.ui.CompilationUnitEditor",1544633173597
activated,editor,org.eclipse.jdt.ui,3.7.2.v20120109-1427,"org.eclipse.jdt.ui.CompilationUnitEditor",1544633178477
executed,command,org.eclipse.ui,3.7.0.v20110928-1505,"org.eclipse.ui.edit.undo",1544633190417
deactivated,workbench,org.eclipse.ui.workbench,3.7.1.v20120104-1859,"",1544633192846
activated,workbench,org.eclipse.ui.workbench,3.7.1.v20120104-1859,"",1544633207892
executed,command,org.eclipse.ui,3.7.0.v20110928-1505,"org.eclipse.ui.edit.copy",1544633211365
opened,editor,org.eclipse.jdt.ui,3.7.2.v20120109-1427,"org.eclipse.jdt.ui.ClassFileEditor",1544633217245
activated,editor,org.eclipse.jdt.ui,3.7.2.v20120109-1427,"org.eclipse.jdt.ui.ClassFileEditor",1544633217306
executed,command,org.eclipse.jdt.ui,3.7.2.v20120109-1427,"org.eclipse.jdt.ui.edit.text.java.open.editor",1544633217339
activated,editor,org.eclipse.jdt.ui,3.7.2.v20120109-1427,"org.eclipse.jdt.ui.CompilationUnitEditor",1544633271412
closed,editor,org.eclipse.jdt.ui,3.7.2.v20120109-1427,"org.eclipse.jdt.ui.ClassFileEditor",1544633271412
deactivated,workbench,org.eclipse.ui.workbench,3.7.1.v20120104-1859,"",1544633275156
activated,workbench,org.eclipse.ui.workbench,3.7.1.v20120104-1859,"",1544633355032
activated,editor,org.eclipse.jdt.ui,3.7.2.v20120109-1427,"org.eclipse.jdt.ui.CompilationUnitEditor",1544633395697
activated,editor,org.eclipse.jdt.ui,3.7.2.v20120109-1427,"org.eclipse.jdt.ui.CompilationUnitEditor",1544633399518
opened,editor,org.eclipse.jdt.ui,3.7.2.v20120109-1427,"org.eclipse.jdt.ui.ClassFileEditor",1544633413667
activated,editor,org.eclipse.jdt.ui,3.7.2.v20120109-1427,"org.eclipse.jdt.ui.ClassFileEditor",1544633413728
executed,command,org.eclipse.jdt.ui,3.7.2.v20120109-1427,"org.eclipse.jdt.ui.edit.text.java.open.editor",1544633413766
activated,editor,org.eclipse.jdt.ui,3.7.2.v20120109-1427,"org.eclipse.jdt.ui.CompilationUnitEditor",1544633439465
closed,editor,org.eclipse.jdt.ui,3.7.2.v20120109-1427,"org.eclipse.jdt.ui.ClassFileEditor",1544633439465
opened,editor,org.eclipse.jdt.ui,3.7.2.v20120109-1427,"org.eclipse.jdt.ui.ClassFileEditor",1544633453693
activated,editor,org.eclipse.jdt.ui,3.7.2.v20120109-1427,"org.eclipse.jdt.ui.ClassFileEditor",1544633453749
executed,command,org.eclipse.jdt.ui,3.7.2.v20120109-1427,"org.eclipse.jdt.ui.edit.text.java.open.editor",1544633453755
activated,editor,org.eclipse.jdt.ui,3.7.2.v20120109-1427,"org.eclipse.jdt.ui.CompilationUnitEditor",1544633461782
closed,editor,org.eclipse.jdt.ui,3.7.2.v20120109-1427,"org.eclipse.jdt.ui.ClassFileEditor",1544633461782
executed,command,org.eclipse.ui,3.7.0.v20110928-1505,"org.eclipse.ui.edit.copy",1544633466618
deactivated,workbench,org.eclipse.ui.workbench,3.7.1.v20120104-1859,"",1544633467977
activated,workbench,org.eclipse.ui.workbench,3.7.1.v20120104-1859,"",1544633502436
executed,command,org.eclipse.ui,3.7.0.v20110928-1505,"org.eclipse.ui.edit.copy",1544633506141
deactivated,workbench,org.eclipse.ui.workbench,3.7.1.v20120104-1859,"",1544633506945
activated,workbench,org.eclipse.ui.workbench,3.7.1.v20120104-1859,"",1544633510923
executed,command,org.eclipse.ui,3.7.0.v20110928-1505,"org.eclipse.ui.edit.copy",1544633512239
deactivated,workbench,org.eclipse.ui.workbench,3.7.1.v20120104-1859,"",1544633512877
activated,workbench,org.eclipse.ui.workbench,3.7.1.v20120104-1859,"",1544633532396
deactivated,workbench,org.eclipse.ui.workbench,3.7.1.v20120104-1859,"",1544633534978
activated,workbench,org.eclipse.ui.workbench,3.7.1.v20120104-1859,"",1544633544094
executed,command,org.eclipse.ui,3.7.0.v20110928-1505,"org.eclipse.ui.edit.copy",1544633556981
deactivated,workbench,org.eclipse.ui.workbench,3.7.1.v20120104-1859,"",1544633557923
activated,workbench,org.eclipse.ui.workbench,3.7.1.v20120104-1859,"",1544633722146
executed,command,org.eclipse.ui,3.7.0.v20110928-1505,"org.eclipse.ui.edit.copy",1544633725240
deactivated,workbench,org.eclipse.ui.workbench,3.7.1.v20120104-1859,"",1544633725887
activated,workbench,org.eclipse.ui.workbench,3.7.1.v20120104-1859,"",1544633915611
deactivated,workbench,org.eclipse.ui.workbench,3.7.1.v20120104-1859,"",1544633917684
activated,workbench,org.eclipse.ui.workbench,3.7.1.v20120104-1859,"",1544633948798
deactivated,workbench,org.eclipse.ui.workbench,3.7.1.v20120104-1859,"",1544633950256
activated,workbench,org.eclipse.ui.workbench,3.7.1.v20120104-1859,"",1544633951645
executed,command,org.eclipse.ui,3.7.0.v20110928-1505,"org.eclipse.ui.edit.copy",1544633980727
deactivated,workbench,org.eclipse.ui.workbench,3.7.1.v20120104-1859,"",1544633982300
activated,workbench,org.eclipse.ui.workbench,3.7.1.v20120104-1859,"",1544634090313
opened,editor,org.eclipse.jdt.ui,3.7.2.v20120109-1427,"org.eclipse.jdt.ui.ClassFileEditor",1544634181859
activated,editor,org.eclipse.jdt.ui,3.7.2.v20120109-1427,"org.eclipse.jdt.ui.ClassFileEditor",1544634181921
executed,command,org.eclipse.jdt.ui,3.7.2.v20120109-1427,"org.eclipse.jdt.ui.edit.text.java.open.editor",1544634181954
activated,editor,org.eclipse.jdt.ui,3.7.2.v20120109-1427,"org.eclipse.jdt.ui.CompilationUnitEditor",1544634203720
closed,editor,org.eclipse.jdt.ui,3.7.2.v20120109-1427,"org.eclipse.jdt.ui.ClassFileEditor",1544634203720
deactivated,workbench,org.eclipse.ui.workbench,3.7.1.v20120104-1859,"",1544634214761
activated,workbench,org.eclipse.ui.workbench,3.7.1.v20120104-1859,"",1544635018289
executed,command,org.eclipse.ui,3.7.0.v20110928-1505,"org.eclipse.ui.edit.copy",1544635021992
