what,kind,bundleId,bundleVersion,description,time
activated,view,org.eclipse.ui.console,3.5.100.v20111007_r372,"org.eclipse.ui.console.ConsoleView",1544647203469
deactivated,workbench,org.eclipse.ui.workbench,3.7.1.v20120104-1859,"",1544647206305
activated,view,org.eclipse.jdt.ui,3.7.2.v20120109-1427,"org.eclipse.jdt.ui.PackageExplorer",1544647545102
activated,workbench,org.eclipse.ui.workbench,3.7.1.v20120104-1859,"",1544647545225
error,log,,,"Unhandled event loop exception",1544647592421
error,log,,,"Unhandled event loop exception",1544647624966
activated,view,org.eclipse.ui.console,3.5.100.v20111007_r372,"org.eclipse.ui.console.ConsoleView",1544647638973
deactivated,workbench,org.eclipse.ui.workbench,3.7.1.v20120104-1859,"",1544647641471
activated,workbench,org.eclipse.ui.workbench,3.7.1.v20120104-1859,"",1544693297999
deactivated,workbench,org.eclipse.ui.workbench,3.7.1.v20120104-1859,"",1544693308248
activated,workbench,org.eclipse.ui.workbench,3.7.1.v20120104-1859,"",1544693889371
deactivated,workbench,org.eclipse.ui.workbench,3.7.1.v20120104-1859,"",1544693892933
activated,workbench,org.eclipse.ui.workbench,3.7.1.v20120104-1859,"",1544696423850
deactivated,workbench,org.eclipse.ui.workbench,3.7.1.v20120104-1859,"",1544696426399
activated,workbench,org.eclipse.ui.workbench,3.7.1.v20120104-1859,"",1544696813668
deactivated,workbench,org.eclipse.ui.workbench,3.7.1.v20120104-1859,"",1544696816326
activated,workbench,org.eclipse.ui.workbench,3.7.1.v20120104-1859,"",1544697313863
activated,editor,org.eclipse.jdt.ui,3.7.2.v20120109-1427,"org.eclipse.jdt.ui.CompilationUnitEditor",1544697315523
opened,editor,org.eclipse.jdt.ui,3.7.2.v20120109-1427,"org.eclipse.jdt.ui.CompilationUnitEditor",1544697319975
activated,editor,org.eclipse.jdt.ui,3.7.2.v20120109-1427,"org.eclipse.jdt.ui.CompilationUnitEditor",1544697320028
executed,command,org.eclipse.jdt.ui,3.7.2.v20120109-1427,"org.eclipse.jdt.ui.edit.text.java.open.editor",1544697320032
activated,editor,org.eclipse.jdt.ui,3.7.2.v20120109-1427,"org.eclipse.jdt.ui.CompilationUnitEditor",1544697330129
closed,editor,org.eclipse.jdt.ui,3.7.2.v20120109-1427,"org.eclipse.jdt.ui.CompilationUnitEditor",1544697330129
activated,view,org.eclipse.jdt.ui,3.7.2.v20120109-1427,"org.eclipse.jdt.ui.PackageExplorer",1544697351778
executed,command,org.eclipse.ui,3.7.0.v20110928-1505,"org.eclipse.ui.edit.copy",1544697356260
deactivated,workbench,org.eclipse.ui.workbench,3.7.1.v20120104-1859,"",1544697358123
activated,workbench,org.eclipse.ui.workbench,3.7.1.v20120104-1859,"",1544700024572
deactivated,workbench,org.eclipse.ui.workbench,3.7.1.v20120104-1859,"",1544700029353
activated,workbench,org.eclipse.ui.workbench,3.7.1.v20120104-1859,"",1544700035715
error,log,,,"Unhandled event loop exception",1544700048221
executed,command,org.eclipse.ui,3.7.0.v20110928-1505,"org.eclipse.ui.edit.copy",1544700052443
deactivated,workbench,org.eclipse.ui.workbench,3.7.1.v20120104-1859,"",1544700053176
activated,workbench,org.eclipse.ui.workbench,3.7.1.v20120104-1859,"",1544700222743
executed,command,org.eclipse.ui,3.7.0.v20110928-1505,"org.eclipse.ui.edit.copy",1544700229979
deactivated,workbench,org.eclipse.ui.workbench,3.7.1.v20120104-1859,"",1544700231055
activated,workbench,org.eclipse.ui.workbench,3.7.1.v20120104-1859,"",1544700927360
error,log,,,"Unhandled event loop exception",1544700945563
deactivated,workbench,org.eclipse.ui.workbench,3.7.1.v20120104-1859,"",1544700950615
activated,workbench,org.eclipse.ui.workbench,3.7.1.v20120104-1859,"",1544703136537
deactivated,workbench,org.eclipse.ui.workbench,3.7.1.v20120104-1859,"",1544703151798
activated,workbench,org.eclipse.ui.workbench,3.7.1.v20120104-1859,"",1544703168163
deactivated,workbench,org.eclipse.ui.workbench,3.7.1.v20120104-1859,"",1544703169150
activated,workbench,org.eclipse.ui.workbench,3.7.1.v20120104-1859,"",1544703175264
deactivated,workbench,org.eclipse.ui.workbench,3.7.1.v20120104-1859,"",1544703186283
activated,workbench,org.eclipse.ui.workbench,3.7.1.v20120104-1859,"",1544703776907
deactivated,workbench,org.eclipse.ui.workbench,3.7.1.v20120104-1859,"",1544703782449
activated,workbench,org.eclipse.ui.workbench,3.7.1.v20120104-1859,"",1544703804242
deactivated,workbench,org.eclipse.ui.workbench,3.7.1.v20120104-1859,"",1544703807258
activated,workbench,org.eclipse.ui.workbench,3.7.1.v20120104-1859,"",1544706277260
deactivated,workbench,org.eclipse.ui.workbench,3.7.1.v20120104-1859,"",1544706279201
activated,workbench,org.eclipse.ui.workbench,3.7.1.v20120104-1859,"",1544706354049
error,log,,,"Unhandled event loop exception",1544706360089
error,log,,,"Unhandled event loop exception",1544706365960
deactivated,workbench,org.eclipse.ui.workbench,3.7.1.v20120104-1859,"",1544706367438
activated,workbench,org.eclipse.ui.workbench,3.7.1.v20120104-1859,"",1544706452001
error,log,,,"Unhandled event loop exception",1544706456952
error,log,,,"Unhandled event loop exception",1544706464789
error,log,,,"Unhandled event loop exception",1544706479090
activated,editor,org.eclipse.jdt.ui,3.7.2.v20120109-1427,"org.eclipse.jdt.ui.CompilationUnitEditor",1544706482729
executed,command,org.eclipse.jdt.ui,3.7.2.v20120109-1427,"org.eclipse.jdt.ui.edit.text.java.open.type.hierarchy",1544706496619
executed,command,org.eclipse.jdt.ui,3.7.2.v20120109-1427,"org.eclipse.jdt.ui.edit.text.java.open.editor",1544706499827
executed,command,org.eclipse.jdt.ui,3.7.2.v20120109-1427,"org.eclipse.jdt.ui.edit.text.java.open.editor",1544706504180
activated,view,org.eclipse.jdt.ui,3.7.2.v20120109-1427,"org.eclipse.jdt.ui.PackageExplorer",1544706526754
error,log,,,"Unhandled event loop exception",1544706563701
error,log,,,"Unhandled event loop exception",1544706591506
deactivated,workbench,org.eclipse.ui.workbench,3.7.1.v20120104-1859,"",1544706595015
activated,workbench,org.eclipse.ui.workbench,3.7.1.v20120104-1859,"",1544707379037
activated,editor,org.eclipse.jdt.ui,3.7.2.v20120109-1427,"org.eclipse.jdt.ui.CompilationUnitEditor",1544707379055
activated,view,org.eclipse.jdt.ui,3.7.2.v20120109-1427,"org.eclipse.jdt.ui.PackageExplorer",1544707390077
activated,editor,org.eclipse.pde.ui,3.6.100.v20120103_r372,"org.eclipse.pde.ui.productEditor",1544707391799
error,log,,,"Unhandled event loop exception",1544707395687
deactivated,workbench,org.eclipse.ui.workbench,3.7.1.v20120104-1859,"",1544707406314
activated,workbench,org.eclipse.ui.workbench,3.7.1.v20120104-1859,"",1544708344879
activated,view,org.eclipse.jdt.ui,3.7.2.v20120109-1427,"org.eclipse.jdt.ui.PackageExplorer",1544708347318
deactivated,workbench,org.eclipse.ui.workbench,3.7.1.v20120104-1859,"",1544708378139
activated,workbench,org.eclipse.ui.workbench,3.7.1.v20120104-1859,"",1544708489595
deactivated,workbench,org.eclipse.ui.workbench,3.7.1.v20120104-1859,"",1544708492423
activated,workbench,org.eclipse.ui.workbench,3.7.1.v20120104-1859,"",1544708569474
deactivated,workbench,org.eclipse.ui.workbench,3.7.1.v20120104-1859,"",1544708573536
activated,workbench,org.eclipse.ui.workbench,3.7.1.v20120104-1859,"",1544708604621
deactivated,workbench,org.eclipse.ui.workbench,3.7.1.v20120104-1859,"",1544708612703
activated,workbench,org.eclipse.ui.workbench,3.7.1.v20120104-1859,"",1544709307354
deactivated,workbench,org.eclipse.ui.workbench,3.7.1.v20120104-1859,"",1544709321339
activated,workbench,org.eclipse.ui.workbench,3.7.1.v20120104-1859,"",1544709343792
deactivated,workbench,org.eclipse.ui.workbench,3.7.1.v20120104-1859,"",1544709346073
activated,workbench,org.eclipse.ui.workbench,3.7.1.v20120104-1859,"",1544710262126
activated,editor,org.eclipse.pde.ui,3.6.100.v20120103_r372,"org.eclipse.pde.ui.productEditor",1544710263510
error,log,,,"Unhandled event loop exception",1544710278036
activated,view,org.eclipse.jdt.ui,3.7.2.v20120109-1427,"org.eclipse.jdt.ui.PackageExplorer",1544710280233
activated,editor,org.eclipse.pde.ui,3.6.100.v20120103_r372,"org.eclipse.pde.ui.manifestEditor",1544710284168
activated,editor,org.eclipse.pde.ui,3.6.100.v20120103_r372,"org.eclipse.pde.ui.productEditor",1544710294529
closed,editor,org.eclipse.pde.ui,3.6.100.v20120103_r372,"org.eclipse.pde.ui.manifestEditor",1544710294529
activated,view,org.eclipse.jdt.ui,3.7.2.v20120109-1427,"org.eclipse.jdt.ui.PackageExplorer",1544710295862
activated,editor,org.eclipse.pde.ui,3.6.100.v20120103_r372,"org.eclipse.pde.ui.productEditor",1544710302553
activated,view,org.eclipse.jdt.ui,3.7.2.v20120109-1427,"org.eclipse.jdt.ui.PackageExplorer",1544710303543
activated,editor,org.eclipse.pde.ui,3.6.100.v20120103_r372,"org.eclipse.pde.ui.productEditor",1544710303790
deactivated,workbench,org.eclipse.ui.workbench,3.7.1.v20120104-1859,"",1544710312470
activated,view,org.eclipse.jdt.ui,3.7.2.v20120109-1427,"org.eclipse.jdt.ui.PackageExplorer",1544710366071
activated,workbench,org.eclipse.ui.workbench,3.7.1.v20120104-1859,"",1544710366217
opened,editor,org.eclipse.pde.ui,3.6.100.v20120103_r372,"org.eclipse.pde.ui.manifestEditor",1544710369217
activated,editor,org.eclipse.pde.ui,3.6.100.v20120103_r372,"org.eclipse.pde.ui.manifestEditor",1544710369258
error,log,,,"Unhandled event loop exception",1544710371035
executed,command,org.eclipse.ui,3.7.0.v20110928-1505,"org.eclipse.ui.edit.copy",1544710382966
deactivated,workbench,org.eclipse.ui.workbench,3.7.1.v20120104-1859,"",1544710384036
activated,workbench,org.eclipse.ui.workbench,3.7.1.v20120104-1859,"",1544714496815
deactivated,workbench,org.eclipse.ui.workbench,3.7.1.v20120104-1859,"",1544714508816
activated,workbench,org.eclipse.ui.workbench,3.7.1.v20120104-1859,"",1544715765811
deactivated,workbench,org.eclipse.ui.workbench,3.7.1.v20120104-1859,"",1544715774974
activated,workbench,org.eclipse.ui.workbench,3.7.1.v20120104-1859,"",1544715786756
executed,command,org.eclipse.ui,3.7.0.v20110928-1505,"org.eclipse.ui.edit.copy",1544715788859
deactivated,workbench,org.eclipse.ui.workbench,3.7.1.v20120104-1859,"",1544715789693
activated,workbench,org.eclipse.ui.workbench,3.7.1.v20120104-1859,"",1544717233902
deactivated,workbench,org.eclipse.ui.workbench,3.7.1.v20120104-1859,"",1544717264040
activated,workbench,org.eclipse.ui.workbench,3.7.1.v20120104-1859,"",1544724171330
activated,editor,org.eclipse.pde.ui,3.6.100.v20120103_r372,"org.eclipse.pde.ui.productEditor",1544724172458
error,log,,,"Unhandled event loop exception",1544724179580
activated,view,org.eclipse.jdt.ui,3.7.2.v20120109-1427,"org.eclipse.jdt.ui.PackageExplorer",1544724186837
activated,editor,org.eclipse.jdt.ui,3.7.2.v20120109-1427,"org.eclipse.jdt.ui.CompilationUnitEditor",1544724187155
deactivated,workbench,org.eclipse.ui.workbench,3.7.1.v20120104-1859,"",1544724216239
activated,workbench,org.eclipse.ui.workbench,3.7.1.v20120104-1859,"",1544725044456
deactivated,workbench,org.eclipse.ui.workbench,3.7.1.v20120104-1859,"",1544725048970
activated,view,org.eclipse.search,3.7.0.v20110928-1504,"org.eclipse.search.ui.views.SearchView",1544725052573
activated,workbench,org.eclipse.ui.workbench,3.7.1.v20120104-1859,"",1544725052661
executed,command,org.eclipse.search,3.7.0.v20110928-1504,"org.eclipse.search.ui.openFileSearchPage",1544725052778
activated,editor,org.eclipse.jdt.ui,3.7.2.v20120109-1427,"org.eclipse.jdt.ui.CompilationUnitEditor",1544725060035
error,log,,,"Unhandled event loop exception",1544725061772
activated,view,org.eclipse.search,3.7.0.v20110928-1504,"org.eclipse.search.ui.views.SearchView",1544725079421
deactivated,workbench,org.eclipse.ui.workbench,3.7.1.v20120104-1859,"",1544725155012
activated,workbench,org.eclipse.ui.workbench,3.7.1.v20120104-1859,"",1544725566547
deactivated,workbench,org.eclipse.ui.workbench,3.7.1.v20120104-1859,"",1544725570402
activated,workbench,org.eclipse.ui.workbench,3.7.1.v20120104-1859,"",1544725578810
executed,command,org.eclipse.search,3.7.0.v20110928-1504,"org.eclipse.search.ui.openFileSearchPage",1544725578887
activated,editor,org.eclipse.jdt.ui,3.7.2.v20120109-1427,"org.eclipse.jdt.ui.CompilationUnitEditor",1544725591250
deactivated,workbench,org.eclipse.ui.workbench,3.7.1.v20120104-1859,"",1544725611614
activated,workbench,org.eclipse.ui.workbench,3.7.1.v20120104-1859,"",1544725841487
activated,editor,org.eclipse.jdt.ui,3.7.2.v20120109-1427,"org.eclipse.jdt.ui.CompilationUnitEditor",1544725843943
activated,view,org.eclipse.search,3.7.0.v20110928-1504,"org.eclipse.search.ui.views.SearchView",1544725846029
activated,editor,org.eclipse.jdt.ui,3.7.2.v20120109-1427,"org.eclipse.jdt.ui.CompilationUnitEditor",1544725846970
deactivated,workbench,org.eclipse.ui.workbench,3.7.1.v20120104-1859,"",1544725847729
executed,command,org.eclipse.ui,3.7.0.v20110928-1505,"org.eclipse.ui.edit.findReplace",1544725847766
activated,workbench,org.eclipse.ui.workbench,3.7.1.v20120104-1859,"",1544725857551
executed,command,org.eclipse.ui,3.7.0.v20110928-1505,"org.eclipse.ui.edit.undo",1544725864279
executed,command,org.eclipse.ui,3.7.0.v20110928-1505,"org.eclipse.ui.edit.undo",1544725864485
deactivated,workbench,org.eclipse.ui.workbench,3.7.1.v20120104-1859,"",1544725866316
activated,workbench,org.eclipse.ui.workbench,3.7.1.v20120104-1859,"",1544725878750
deactivated,workbench,org.eclipse.ui.workbench,3.7.1.v20120104-1859,"",1544725880312
activated,workbench,org.eclipse.ui.workbench,3.7.1.v20120104-1859,"",1544725887202
deactivated,workbench,org.eclipse.ui.workbench,3.7.1.v20120104-1859,"",1544725887647
activated,workbench,org.eclipse.ui.workbench,3.7.1.v20120104-1859,"",1544726146325
deactivated,workbench,org.eclipse.ui.workbench,3.7.1.v20120104-1859,"",1544726147498
activated,workbench,org.eclipse.ui.workbench,3.7.1.v20120104-1859,"",1544726148171
deactivated,workbench,org.eclipse.ui.workbench,3.7.1.v20120104-1859,"",1544726149480
activated,workbench,org.eclipse.ui.workbench,3.7.1.v20120104-1859,"",1544726163206
deactivated,workbench,org.eclipse.ui.workbench,3.7.1.v20120104-1859,"",1544726165998
executed,command,org.eclipse.ui,3.7.0.v20110928-1505,"org.eclipse.ui.edit.copy",1544726171630
activated,workbench,org.eclipse.ui.workbench,3.7.1.v20120104-1859,"",1544734512753
deactivated,workbench,org.eclipse.ui.workbench,3.7.1.v20120104-1859,"",1544734514021
activated,workbench,org.eclipse.ui.workbench,3.7.1.v20120104-1859,"",1544734516713
closed,workbench,org.eclipse.ui.workbench,3.7.1.v20120104-1859,"",1544734517239
stopped,bundle,org.eclipse.mylyn.ide.ant,3.6.0.v20110608-1400,"org.eclipse.mylyn.ide.ant",1544734517804
stopped,bundle,org.eclipse.mylyn.pde.ui,3.6.0.v20110608-1400,"org.eclipse.mylyn.pde.ui",1544734517805
stopped,bundle,org.eclipse.pde.api.tools.ui,1.0.301.v20110803_r371,"org.eclipse.pde.api.tools.ui",1544734517807
stopped,bundle,org.eclipse.pde.ds.ui,1.0.100.v20111213-1754,"org.eclipse.pde.ds.ui",1544734517808
stopped,bundle,org.eclipse.pde.runtime,3.4.201.v20110928-1516,"org.eclipse.pde.runtime",1544734517814
stopped,bundle,org.eclipse.pde.ua.ui,1.0.100.v20110516,"org.eclipse.pde.ua.ui",1544734517817
stopped,bundle,org.eclipse.pde.ui.templates,3.4.400.v20110928-1516,"org.eclipse.pde.ui.templates",1544734517819
stopped,bundle,org.eclipse.rap.ui.launch,1.4.2.20120213-1325,"org.eclipse.rap.ui.launch",1544734517820
stopped,bundle,org.eclipse.rap.ui.templates,1.4.2.20120213-1325,"org.eclipse.rap.ui.templates",1544734517821
stopped,bundle,org.eclipse.pde.ui,3.6.100.v20120103_r372,"org.eclipse.pde.ui",1544734517821
stopped,bundle,org.eclipse.ant.ui,3.5.101.v20120110-1739,"org.eclipse.ant.ui",1544734517823
stopped,bundle,org.eclipse.ant.launching,1.0.101.v20120110-1739,"org.eclipse.ant.launching",1544734517825
stopped,bundle,org.eclipse.egit.mylyn.ui,1.3.0.201202151440-r,"org.eclipse.egit.mylyn.ui",1544734517827
stopped,bundle,org.eclipse.egit.ui,1.3.0.201202151440-r,"org.eclipse.egit.ui",1544734517828
stopped,bundle,org.eclipse.egit.core,1.3.0.201202151440-r,"org.eclipse.egit.core",1544734517828
stopped,bundle,org.eclipse.equinox.p2.ui.sdk,1.0.200.v20110815-1419,"org.eclipse.equinox.p2.ui.sdk",1544734517830
stopped,bundle,org.eclipse.mylyn.java.tasks,3.6.0.v20110608-1400,"org.eclipse.mylyn.java.tasks",1544734517830
stopped,bundle,org.eclipse.mylyn.java.ui,3.6.0.v20110608-1400,"org.eclipse.mylyn.java.ui",1544734517831
stopped,bundle,org.eclipse.jdt.junit,3.7.0.v20110928-1453,"org.eclipse.jdt.junit",1544734517831
stopped,bundle,org.eclipse.jdt.apt.ui,3.3.300.v20110305-1450,"org.eclipse.jdt.apt.ui",1544734517833
stopped,bundle,org.eclipse.rap.ui.launch.rwt,1.4.2.20120213-1325,"org.eclipse.rap.ui.launch.rwt",1544734517834
stopped,bundle,org.eclipse.jdt.debug.ui,3.6.1.v20111006_r372,"org.eclipse.jdt.debug.ui",1544734517834
stopped,bundle,org.eclipse.jdt.ui,3.7.2.v20120109-1427,"org.eclipse.jdt.ui",1544734517835
stopped,bundle,org.eclipse.wst.dtd.ui,1.0.600.v201103171359,"org.eclipse.wst.dtd.ui",1544734517839
activated,perspective,org.eclipse.jdt.ui,,"org.eclipse.jdt.ui.JavaPerspective",1544785326497
started,bundle,org.eclipse.osgi,3.7.2.v20120110-1415,"org.eclipse.osgi",1544785326498
started,bundle,org.eclipse.equinox.simpleconfigurator,1.0.200.v20110815-1438,"org.eclipse.equinox.simpleconfigurator",1544785326499
started,bundle,com.ibm.icu,4.4.2.v20110823,"com.ibm.icu",1544785326499
started,bundle,org.eclipse.compare.core,3.5.200.I20110208-0800,"org.eclipse.compare.core",1544785326500
started,bundle,org.eclipse.core.contenttype,3.4.100.v20110423-0524,"org.eclipse.core.contenttype",1544785326500
started,bundle,org.eclipse.core.databinding.observable,1.4.0.I20110222-0800,"org.eclipse.core.databinding.observable",1544785326501
started,bundle,org.eclipse.core.expressions,3.4.300.v20110228,"org.eclipse.core.expressions",1544785326502
started,bundle,org.eclipse.core.filebuffers,3.5.200.v20110928-1504,"org.eclipse.core.filebuffers",1544785326502
started,bundle,org.eclipse.core.filesystem,1.3.100.v20110423-0524,"org.eclipse.core.filesystem",1544785326503
started,bundle,org.eclipse.core.jobs,3.5.101.v20120113-1953,"org.eclipse.core.jobs",1544785326503
started,bundle,org.eclipse.core.net,1.2.100.I20110511-0800,"org.eclipse.core.net",1544785326504
started,bundle,org.eclipse.core.resources,3.7.101.v20120125-1505,"org.eclipse.core.resources",1544785326504
started,bundle,org.eclipse.core.runtime,3.7.0.v20110110,"org.eclipse.core.runtime",1544785326505
started,bundle,org.eclipse.core.runtime.compatibility,3.2.100.v20100505,"org.eclipse.core.runtime.compatibility",1544785326506
started,bundle,org.eclipse.core.runtime.compatibility.auth,3.2.200.v20110110,"org.eclipse.core.runtime.compatibility.auth",1544785326506
started,bundle,org.eclipse.core.variables,3.2.500.v20110928-1503,"org.eclipse.core.variables",1544785326506
started,bundle,org.eclipse.debug.core,3.7.1.v20111129-2031,"org.eclipse.debug.core",1544785326507
started,bundle,org.eclipse.debug.ui,3.7.102.v20111129-1423_r372,"org.eclipse.debug.ui",1544785326508
started,bundle,org.eclipse.egit.core,1.3.0.201202151440-r,"org.eclipse.egit.core",1544785326509
started,bundle,org.eclipse.egit.ui,1.3.0.201202151440-r,"org.eclipse.egit.ui",1544785326510
started,bundle,org.eclipse.epp.mpc.ui,1.1.1.I20110907-0947,"org.eclipse.epp.mpc.ui",1544785326510
started,bundle,org.eclipse.epp.usagedata.gathering,1.3.1.R201106061540,"org.eclipse.epp.usagedata.gathering",1544785326511
started,bundle,org.eclipse.epp.usagedata.recording,1.3.1.R201106061540,"org.eclipse.epp.usagedata.recording",1544785326511
started,bundle,org.eclipse.equinox.app,1.3.100.v20110321,"org.eclipse.equinox.app",1544785326512
started,bundle,org.eclipse.equinox.common,3.6.0.v20110523,"org.eclipse.equinox.common",1544785326512
started,bundle,org.eclipse.equinox.ds,1.3.1.R37x_v20110701,"org.eclipse.equinox.ds",1544785326512
started,bundle,org.eclipse.equinox.event,1.2.100.v20110502,"org.eclipse.equinox.event",1544785326512
started,bundle,org.eclipse.equinox.frameworkadmin,2.0.0.v20110815-1438,"org.eclipse.equinox.frameworkadmin",1544785326513
started,bundle,org.eclipse.equinox.p2.artifact.repository,1.1.101.v20110815-1419,"org.eclipse.equinox.p2.artifact.repository",1544785326513
started,bundle,org.eclipse.equinox.p2.core,2.1.1.v20120113-1346,"org.eclipse.equinox.p2.core",1544785326514
started,bundle,org.eclipse.equinox.p2.director,2.1.1.v20111126-0211,"org.eclipse.equinox.p2.director",1544785326514
started,bundle,org.eclipse.equinox.p2.directorywatcher,1.0.300.v20110815-1419,"org.eclipse.equinox.p2.directorywatcher",1544785326515
started,bundle,org.eclipse.equinox.p2.engine,2.1.1.R37x_v20111003,"org.eclipse.equinox.p2.engine",1544785326515
started,bundle,org.eclipse.equinox.p2.extensionlocation,1.2.100.v20110815-1419,"org.eclipse.equinox.p2.extensionlocation",1544785326515
started,bundle,org.eclipse.equinox.p2.garbagecollector,1.0.200.v20110815-1419,"org.eclipse.equinox.p2.garbagecollector",1544785326516
started,bundle,org.eclipse.equinox.p2.metadata,2.1.0.v20110815-1419,"org.eclipse.equinox.p2.metadata",1544785326516
started,bundle,org.eclipse.equinox.p2.metadata.repository,1.2.0.v20110815-1419,"org.eclipse.equinox.p2.metadata.repository",1544785326517
started,bundle,org.eclipse.equinox.p2.operations,2.1.1.R37x_v20111111,"org.eclipse.equinox.p2.operations",1544785326518
started,bundle,org.eclipse.equinox.p2.publisher,1.2.0.v20110815-1419,"org.eclipse.equinox.p2.publisher",1544785326518
started,bundle,org.eclipse.equinox.p2.publisher.eclipse,1.0.0.v20110815-1438,"org.eclipse.equinox.p2.publisher.eclipse",1544785326520
started,bundle,org.eclipse.equinox.p2.reconciler.dropins,1.1.100.v20110815-1419,"org.eclipse.equinox.p2.reconciler.dropins",1544785326521
started,bundle,org.eclipse.equinox.p2.repository,2.1.1.v20120113-1346,"org.eclipse.equinox.p2.repository",1544785326522
started,bundle,org.eclipse.equinox.p2.touchpoint.eclipse,2.1.1.v20110815-1419,"org.eclipse.equinox.p2.touchpoint.eclipse",1544785326523
started,bundle,org.eclipse.equinox.p2.ui.sdk.scheduler,1.0.100.v20110815-1419,"org.eclipse.equinox.p2.ui.sdk.scheduler",1544785326523
started,bundle,org.eclipse.equinox.p2.updatechecker,1.1.200.v20110815-1419,"org.eclipse.equinox.p2.updatechecker",1544785326523
started,bundle,org.eclipse.equinox.preferences,3.4.2.v20120111-2020,"org.eclipse.equinox.preferences",1544785326524
started,bundle,org.eclipse.equinox.registry,3.5.101.R37x_v20110810-1611,"org.eclipse.equinox.registry",1544785326524
started,bundle,org.eclipse.equinox.security,1.1.1.R37x_v20110822-1018,"org.eclipse.equinox.security",1544785326525
started,bundle,org.eclipse.equinox.simpleconfigurator.manipulator,2.0.0.v20110815-1438,"org.eclipse.equinox.simpleconfigurator.manipulator",1544785326525
started,bundle,org.eclipse.equinox.util,1.0.300.v20110502,"org.eclipse.equinox.util",1544785326525
started,bundle,org.eclipse.help,3.5.100.v20110426,"org.eclipse.help",1544785326526
started,bundle,org.eclipse.jdt.apt.core,3.3.500.v20110420-1015,"org.eclipse.jdt.apt.core",1544785326527
started,bundle,org.eclipse.jdt.apt.pluggable.core,1.0.400.v20110305-1450,"org.eclipse.jdt.apt.pluggable.core",1544785326527
started,bundle,org.eclipse.jdt.core,3.7.3.v20120119-1537,"org.eclipse.jdt.core",1544785326528
started,bundle,org.eclipse.jdt.core.manipulation,1.4.0.v20110928-1453,"org.eclipse.jdt.core.manipulation",1544785326528
started,bundle,org.eclipse.jdt.debug,3.7.1.v20111006_r372,"org.eclipse.jdt.debug",1544785326529
started,bundle,org.eclipse.jdt.debug.ui,3.6.1.v20111006_r372,"org.eclipse.jdt.debug.ui",1544785326529
started,bundle,org.eclipse.jdt.junit,3.7.0.v20110928-1453,"org.eclipse.jdt.junit",1544785326530
started,bundle,org.eclipse.jdt.launching,3.6.1.v20111006_r372,"org.eclipse.jdt.launching",1544785326531
started,bundle,org.eclipse.jdt.launching.macosx,3.2.100.v20111006_r372,"org.eclipse.jdt.launching.macosx",1544785326531
started,bundle,org.eclipse.jdt.ui,3.7.2.v20120109-1427,"org.eclipse.jdt.ui",1544785326532
started,bundle,org.eclipse.jface,3.7.0.v20110928-1505,"org.eclipse.jface",1544785326532
started,bundle,org.eclipse.jgit,1.3.0.201202151440-r,"org.eclipse.jgit",1544785326532
started,bundle,org.eclipse.jsch.core,1.1.300.I20110514-0800,"org.eclipse.jsch.core",1544785326533
started,bundle,org.eclipse.ltk.core.refactoring,3.5.201.r372_v20111101-0700,"org.eclipse.ltk.core.refactoring",1544785326534
started,bundle,org.eclipse.ltk.ui.refactoring,3.6.0.v20110928-1453,"org.eclipse.ltk.ui.refactoring",1544785326534
started,bundle,org.eclipse.mylyn.bugzilla.core,3.6.5.v20120123-0100,"org.eclipse.mylyn.bugzilla.core",1544785326535
started,bundle,org.eclipse.mylyn.bugzilla.ui,3.6.0.v20110608-1400,"org.eclipse.mylyn.bugzilla.ui",1544785326537
started,bundle,org.eclipse.mylyn.commons.identity,0.8.0.v20110608-1400,"org.eclipse.mylyn.commons.identity",1544785326537
started,bundle,org.eclipse.mylyn.commons.net,3.6.0.v20110608-1400,"org.eclipse.mylyn.commons.net",1544785326537
started,bundle,org.eclipse.mylyn.commons.ui,3.6.1.v20110720-0100,"org.eclipse.mylyn.commons.ui",1544785326537
started,bundle,org.eclipse.mylyn.context.core,3.6.1.v20110720-0100,"org.eclipse.mylyn.context.core",1544785326538
started,bundle,org.eclipse.mylyn.context.ui,3.6.1.v20120112-0100,"org.eclipse.mylyn.context.ui",1544785326539
started,bundle,org.eclipse.mylyn.monitor.ui,3.6.0.v20110608-1400,"org.eclipse.mylyn.monitor.ui",1544785326539
